{
    "title": "Chart Values",
    "type": "object",
    "properties": {
        "image": {
            "type": "object",
            "properties": {
                "registry": {
                    "type": "string",
                    "description": "Image registry (ignored if 'global.imageRegistry' is set)",
                    "default": "docker.io"
                },
                "repository": {
                    "type": "string",
                    "description": "Image repository of the controller API.",
                    "default": "cfssl/cfssl"
                },
                "tag": {
                    "type": "string",
                    "description": "Image tag (ignored if 'global.imageTag' is set). When set to null, the AppVersion from the chart is used",
                    "default": "v1.6.4"
                },
                "pullPolicy": {
                    "type": "string",
                    "description": "Image pull policy",
                    "default": "Always"
                },
                "pullSecrets": {
                    "type": "array",
                    "description": "Secrets for the image repository",
                    "default": [],
                    "items": {}
                }
            }
        },
        "replicaCount": {
            "type": "number",
            "description": "Number of controller replicas",
            "default": 1
        },
        "serviceAccount": {
            "type": "object",
            "properties": {
                "create": {
                    "type": "boolean",
                    "description": "Specifies whether a service account should be created",
                    "default": true
                },
                "annotations": {
                    "type": "object",
                    "description": "Annotations to add to the service account",
                    "default": {}
                },
                "name": {
                    "type": "string",
                    "description": "The name of the service account to use. If not set and create is true, a name is generated using the fullname template",
                    "default": ""
                }
            }
        },
        "podSecurityContext": {
            "type": "object",
            "description": "Security context for the pod",
            "default": {}
        },
        "securityContext": {
            "type": "object",
            "description": "Optional security context. The YAML block should adhere to the [SecurityContext spec](https://kubernetes.io/docs/reference/generated/kubernetes-api/v1.16/#securitycontext-v1-core) | `{}`",
            "default": {}
        },
        "resources": {
            "type": "object",
            "description": "Pod resource requests & limits",
            "default": {}
        },
        "nodeSelector": {
            "type": "object",
            "description": "Node labels for pod assignment",
            "default": {}
        },
        "affinity": {
            "type": "object",
            "description": "Node affinity for pod assignment",
            "default": {}
        },
        "tolerations": {
            "type": "array",
            "description": "Node tolerations for pod assignment",
            "default": [],
            "items": {}
        },
        "config": {
            "type": "object",
            "properties": {
                "existingSecret": {
                    "type": "string",
                    "description": "Secret containing the root certificate and key of the CA",
                    "default": ""
                },
                "caConfig": {
                    "type": "object",
                    "properties": {
                        "signing": {
                            "type": "object",
                            "properties": {
                                "default": {
                                    "type": "object",
                                    "properties": {
                                        "usages": {
                                            "type": "array",
                                            "description": "PKI usages, can be array of: 'signing', 'key encipherment', 'server auth', 'client auth'",
                                            "default": [
                                                "signing",
                                                "key encipherment",
                                                "server auth",
                                                "client auth"
                                            ],
                                            "items": {
                                                "type": "string"
                                            }
                                        },
                                        "expiry": {
                                            "type": "string",
                                            "description": "Certificate expiry",
                                            "default": "26280h"
                                        }
                                    }
                                }
                            }
                        }
                    }
                }
            }
        },
        "nameOverride": {
            "type": "string",
            "description": "Override deployment name",
            "default": ""
        },
        "fullnameOverride": {
            "type": "string",
            "description": "Override full deployment name",
            "default": ""
        },
        "service": {
            "type": "object",
            "properties": {
                "type": {
                    "type": "string",
                    "description": "Service Type (ClusterIP, NodePort, LoadBalancer)",
                    "default": "ClusterIP"
                },
                "port": {
                    "type": "number",
                    "description": "Port exposed by the service",
                    "default": 8888
                }
            }
        }
    }
}